Bargraph/simulation/qsim/Bargraph.msim.vcd
$comment
	File created using the following command:
		vcd file Bargraph.msim.vcd -direction
$end
$date
	Fri May 28 22:17:26 2021
$end
$version
	ModelSim Version 10.1d
$end
$timescale
	1ps
$end
$scope module Bargraph_vlg_vec_tst $end
$var reg 4 ! entree [3:0] $end
$var wire 1 " sortie [7] $end
$var wire 1 # sortie [6] $end
$var wire 1 $ sortie [5] $end
$var wire 1 % sortie [4] $end
$var wire 1 & sortie [3] $end
$var wire 1 ' sortie [2] $end
$var wire 1 ( sortie [1] $end
$var wire 1 ) sortie [0] $end
$var wire 1 * sampler $end
$scope module i1 $end
$var wire 1 + gnd $end
$var wire 1 , vcc $end
$var wire 1 - unknown $end
$var tri1 1 . devclrn $end
$var tri1 1 / devpor $end
$var tri1 1 0 devoe $end
$var wire 1 1 sortie[0]~output_o $end
$var wire 1 2 sortie[1]~output_o $end
$var wire 1 3 sortie[2]~output_o $end
$var wire 1 4 sortie[3]~output_o $end
$var wire 1 5 sortie[4]~output_o $end
$var wire 1 6 sortie[5]~output_o $end
$var wire 1 7 sortie[6]~output_o $end
$var wire 1 8 sortie[7]~output_o $end
$var wire 1 9 entree[1]~input_o $end
$var wire 1 : entree[2]~input_o $end
$var wire 1 ; entree[3]~input_o $end
$var wire 1 < entree[0]~input_o $end
$var wire 1 = Mux6~0_combout $end
$var wire 1 > Mux6~1_combout $end
$var wire 1 ? Mux4~0_combout $end
$var wire 1 @ Mux3~0_combout $end
$var wire 1 A Mux2~0_combout $end
$var wire 1 B Mux1~0_combout $end
$var wire 1 C Mux0~0_combout $end
$upscope $end
$upscope $end
$enddefinitions $end
#0
$dumpvars
b0 !
0)
0(
0'
0&
0%
0$
0#
0"
x*
0+
1,
x-
1.
1/
10
01
02
03
04
05
06
07
08
09
0:
0;
0<
1=
1>
0?
1@
0A
0B
0C
$end
#10000
b1 !
1<
0*
0=
11
1)
#20000
b11 !
b10 !
0<
19
1*
0>
12
1(
#30000
b11 !
1<
0*
1?
13
1'
#40000
b111 !
b101 !
b100 !
0<
09
1:
1*
0@
14
1&
#50000
b101 !
1<
0*
1A
15
1%
#60000
b111 !
b110 !
0<
19
1*
1B
16
1$
#70000
b111 !
1<
0*
1C
17
1#
#80000
b1111 !
b1011 !
b1001 !
b1000 !
0<
09
0:
1*
1;
18
1"
#90000
b1001 !
1<
0*
#100000
b1011 !
b1010 !
0<
19
1*
#110000
b1011 !
1<
0*
#120000
b1111 !
b1101 !
b1100 !
0<
09
1:
1*
#130000
b1101 !
1<
0*
#140000
b1111 !
b1110 !
0<
19
1*
#150000
b1111 !
1<
0*
