Servo/simulation/qsim/Servo.msim.vcd
$comment
	File created using the following command:
		vcd file Servo.msim.vcd -direction
$end
$date
	Tue May 25 11:53:16 2021
$end
$version
	ModelSim Version 10.1d
$end
$timescale
	1ps
$end
$scope module Servo_vlg_vec_tst $end
$var reg 1 ! H $end
$var reg 11 " Ton [10:0] $end
$var wire 1 # PWM $end
$var wire 1 $ sampler $end
$scope module i1 $end
$var wire 1 % gnd $end
$var wire 1 & vcc $end
$var wire 1 ' unknown $end
$var tri1 1 ( devclrn $end
$var tri1 1 ) devpor $end
$var tri1 1 * devoe $end
$var wire 1 + Add0~0_combout $end
$var wire 1 , Add0~4_combout $end
$var wire 1 - LessThan0~1_combout $end
$var wire 1 . Add0~30_combout $end
$var wire 1 / Add0~32_combout $end
$var wire 1 0 Ton[9]~input_o $end
$var wire 1 1 Ton[7]~input_o $end
$var wire 1 2 Ton[6]~input_o $end
$var wire 1 3 Ton[4]~input_o $end
$var wire 1 4 Ton[3]~input_o $end
$var wire 1 5 Ton[1]~input_o $end
$var wire 1 6 PWM~output_o $end
$var wire 1 7 H~input_o $end
$var wire 1 8 H~inputclkctrl_outclk $end
$var wire 1 9 Ton[10]~input_o $end
$var wire 1 : cpt[10]~feeder_combout $end
$var wire 1 ; Add0~1 $end
$var wire 1 < Add0~2_combout $end
$var wire 1 = Add0~31_combout $end
$var wire 1 > Add0~3 $end
$var wire 1 ? Add0~5 $end
$var wire 1 @ Add0~6_combout $end
$var wire 1 A Add0~29_combout $end
$var wire 1 B Add0~7 $end
$var wire 1 C Add0~9 $end
$var wire 1 D Add0~10_combout $end
$var wire 1 E Add0~27_combout $end
$var wire 1 F cpt[5]~feeder_combout $end
$var wire 1 G Add0~8_combout $end
$var wire 1 H Add0~28_combout $end
$var wire 1 I LessThan0~2_combout $end
$var wire 1 J Add0~11 $end
$var wire 1 K Add0~12_combout $end
$var wire 1 L Add0~26_combout $end
$var wire 1 M Add0~13 $end
$var wire 1 N Add0~14_combout $end
$var wire 1 O Add0~25_combout $end
$var wire 1 P LessThan0~0_combout $end
$var wire 1 Q LessThan0~3_combout $end
$var wire 1 R Add0~15 $end
$var wire 1 S Add0~16_combout $end
$var wire 1 T Add0~24_combout $end
$var wire 1 U Add0~17 $end
$var wire 1 V Add0~18_combout $end
$var wire 1 W Add0~23_combout $end
$var wire 1 X Add0~19 $end
$var wire 1 Y Add0~20_combout $end
$var wire 1 Z Add0~22_combout $end
$var wire 1 [ Ton[8]~input_o $end
$var wire 1 \ Ton[5]~input_o $end
$var wire 1 ] Ton[2]~input_o $end
$var wire 1 ^ Ton[0]~input_o $end
$var wire 1 _ LessThan1~1_cout $end
$var wire 1 ` LessThan1~3_cout $end
$var wire 1 a LessThan1~5_cout $end
$var wire 1 b LessThan1~7_cout $end
$var wire 1 c LessThan1~9_cout $end
$var wire 1 d LessThan1~11_cout $end
$var wire 1 e LessThan1~13_cout $end
$var wire 1 f LessThan1~15_cout $end
$var wire 1 g LessThan1~17_cout $end
$var wire 1 h LessThan1~19_cout $end
$var wire 1 i LessThan1~20_combout $end
$var wire 1 j PWM~reg0_q $end
$var wire 1 k cpt [10] $end
$var wire 1 l cpt [9] $end
$var wire 1 m cpt [8] $end
$var wire 1 n cpt [7] $end
$var wire 1 o cpt [6] $end
$var wire 1 p cpt [5] $end
$var wire 1 q cpt [4] $end
$var wire 1 r cpt [3] $end
$var wire 1 s cpt [2] $end
$var wire 1 t cpt [1] $end
$var wire 1 u cpt [0] $end
$upscope $end
$upscope $end
$enddefinitions $end
#0
$dumpvars
0!
b110010 "
0#
x$
0%
1&
x'
1(
1)
1*
1+
0,
1-
0.
1/
00
01
02
13
04
15
06
07
08
09
0:
0;
0<
0=
1>
0?
0@
0A
1B
0C
0D
0E
0F
0G
0H
1I
1J
0K
0L
0M
0N
0O
1P
1Q
1R
0S
0T
0U
0V
0W
1X
0Y
0Z
0[
1\
0]
0^
0_
0`
1a
0b
1c
0d
1e
0f
1g
0h
1i
0j
0u
0t
0s
0r
0q
0p
0o
0n
0m
0l
0k
$end
#500
1!
17
18
0$
1u
1j
1;
0+
16
1#
1<
0/
1=
1`
0a
1b
#1000
0!
07
08
1$
#1500
1!
17
18
0$
1t
0u
0>
0<
0;
1+
1,
0=
1>
1<
1/
1.
0`
0,
1=
0.
1`
#2000
0!
07
08
1$
#2500
1!
17
18
0$
1u
1;
0+
0>
0<
0/
1,
0=
1.
0`
#3000
0!
07
08
1$
#3500
1!
17
18
0$
0t
0u
1s
1>
1<
0;
1+
1?
0,
0?
1,
1=
0<
1/
1@
0.
0@
1.
1`
0=
1A
1a
0A
0a
0`
#4000
0!
07
08
1$
#4500
1!
17
18
0$
1u
1;
0+
1<
0/
1=
1`
#5000
0!
07
08
1$
#5500
1!
17
18
0$
1t
0u
0>
0<
0;
1+
1?
0,
0=
1>
1<
1/
1@
0.
0`
0?
1,
1=
1A
1a
0@
1.
1`
0A
0a
#6000
0!
07
08
1$
#6500
1!
17
18
0$
1u
1;
0+
0>
0<
0/
1?
0,
0=
1@
0.
0`
1A
1a
#7000
0!
07
08
1$
#7500
1!
17
18
0$
1r
0t
0u
0s
0B
0@
1>
1<
0;
1+
0?
1,
1G
0A
0,
1=
0<
1/
1B
1@
1.
1H
0b
0.
1`
0=
0G
1A
0a
0`
0H
1b
1a
#8000
0!
07
08
1$
#8500
1!
17
18
0$
1u
1;
0+
1<
0/
1=
1`
0a
#9000
0!
07
08
1$
#9500
1!
17
18
0$
1t
0u
0>
0<
0;
1+
1,
0=
1>
1<
1/
1.
0`
0,
1=
0.
1`
#10000
0!
07
08
1$
#10500
1!
17
18
0$
1u
1;
0+
0>
0<
0/
1,
0=
1.
0`
#11000
0!
07
08
1$
#11500
1!
17
18
0$
0t
0u
1s
1>
1<
0;
1+
1?
0,
0?
1,
1=
0<
1/
0B
0@
0.
1B
1@
1.
1`
0=
1G
0A
1a
0G
1A
0a
0`
1H
0b
0H
1b
#12000
0!
07
08
1$
#12500
1!
17
18
0$
1u
1;
0+
1<
0/
1=
1`
#13000
0!
07
08
1$
#13500
1!
17
18
0$
1t
0u
0>
0<
0;
1+
1?
0,
0=
1>
1<
1/
0B
0@
0.
0`
0?
1,
1=
1G
0A
1a
1B
1@
1.
1`
1H
0b
0G
1A
0a
0H
1b
#14000
0!
07
08
1$
#14500
1!
17
18
0$
1u
0-
1;
0+
0>
0<
0/
1?
0,
0=
0B
0@
0.
0`
1G
0A
1a
1H
0b
#15000
0!
07
08
1$
#15500
1!
17
18
0$
1q
0r
0t
0u
0s
0I
1C
0G
1B
1@
1-
1>
1<
0;
1+
0?
1,
1D
0H
0C
1G
1A
0,
1=
0<
1/
0@
1.
1E
0D
1H
1b
0.
1`
0=
0A
0a
1F
0E
0c
0`
0F
1a
0b
1c
#16000
0!
07
08
1$
#16500
1!
17
18
0$
1u
1;
0+
1<
0/
1=
1`
0a
1b
0c
#17000
0!
07
08
1$
#17500
1!
17
18
0$
1t
0u
0>
0<
0;
1+
1,
0=
1>
1<
1/
1.
0`
0,
1=
0.
1`
#18000
0!
07
08
1$
#18500
1!
17
18
0$
1u
1;
0+
0>
0<
0/
1,
0=
1.
0`
#19000
0!
07
08
1$
#19500
1!
17
18
0$
0t
0u
1s
1>
1<
0;
1+
1?
0,
0?
1,
1=
0<
1/
1@
0.
0@
1.
1`
0=
1A
1a
0A
0a
0`
#20000
0!
07
08
1$
#20500
1!
17
18
0$
1u
1;
0+
1<
0/
1=
1`
#21000
0!
07
08
1$
#21500
1!
17
18
0$
1t
0u
0>
0<
0;
1+
1?
0,
0=
1>
1<
1/
1@
0.
0`
0?
1,
1=
1A
1a
0@
1.
1`
0A
0a
#22000
0!
07
08
1$
#22500
1!
17
18
0$
1u
1;
0+
0>
0<
0/
1?
0,
0=
1@
0.
0`
1A
1a
#23000
0!
07
08
1$
#23500
1!
17
18
0$
1r
0t
0u
0s
0B
0@
1>
1<
0;
1+
0?
1,
1C
0G
0A
0,
1=
0<
1/
1B
1@
1.
1D
0H
0b
0.
1`
0=
0C
1G
1A
0a
1E
1c
0`
0D
1H
1b
1F
1a
0E
0c
0F
#24000
0!
07
08
1$
#24500
1!
17
18
0$
1u
1;
0+
1<
0/
1=
1`
0a
#25000
0!
07
08
1$
#25500
1!
17
18
0$
1t
0u
0>
0<
0;
1+
1,
0=
1>
1<
1/
1.
0`
0,
1=
0.
1`
#26000
0!
07
08
1$
#26500
1!
17
18
0$
1u
1;
0+
0>
0<
0/
1,
0=
1.
0`
#27000
0!
07
08
1$
#27500
1!
17
18
0$
0t
0u
1s
1>
1<
0;
1+
1?
0,
0?
1,
1=
0<
1/
0B
0@
0.
1B
1@
1.
1`
0=
1C
0G
0A
1a
0C
1G
1A
0a
0`
1D
0H
0b
0D
1H
1b
1E
1c
0E
0c
1F
0F
#28000
0!
07
08
1$
#28500
1!
17
18
0$
1u
1;
0+
1<
0/
1=
1`
#29000
0!
07
08
1$
#29500
1!
17
18
0$
1t
0u
0>
0<
0;
1+
1?
0,
0=
1>
1<
1/
0B
0@
0.
0`
0?
1,
1=
1C
0G
0A
1a
1B
1@
1.
1`
1D
0H
0b
0C
1G
1A
0a
1E
1c
0D
1H
1b
1F
0E
0c
0F
#30000
0!
07
08
1$
#30500
1!
17
18
0$
1u
0-
1;
0+
0>
0<
0/
1?
0,
0=
0B
0@
0.
0`
1C
0G
0A
1a
1D
0H
0b
1E
1c
1F
#31000
0!
07
08
1$
#31500
1!
17
18
0$
0q
1p
0r
0t
0u
0s
0C
1G
0J
0D
1B
1@
1-
1>
1<
0;
1+
0?
1,
1J
1D
1H
1K
0E
0G
1A
0,
1=
0<
1/
0@
1.
0K
1E
1L
0F
0H
1b
0.
1`
0=
0A
0a
0L
1F
0e
0`
1e
1f
1a
0f
0g
0b
1g
1h
0h
0i
1i
#32000
0!
07
08
1$
#32500
1!
17
18
0$
1u
1;
0+
1<
0/
1=
1`
0a
1b
#33000
0!
07
08
1$
#33500
1!
17
18
0$
1t
0u
0>
0<
0;
1+
1,
0=
1>
1<
1/
1.
0`
0,
1=
0.
1`
#34000
0!
07
08
1$
#34500
1!
17
18
0$
1u
1;
0+
0>
0<
0/
1,
0=
1.
0`
#35000
0!
07
08
1$
#35500
1!
17
18
0$
0t
0u
1s
1>
1<
0;
1+
1?
0,
0?
1,
1=
0<
1/
1@
0.
0@
1.
1`
0=
1A
1a
0A
0a
0`
#36000
0!
07
08
1$
#36500
1!
17
18
0$
1u
1;
0+
1<
0/
1=
1`
#37000
0!
07
08
1$
#37500
1!
17
18
0$
1t
0u
0>
0<
0;
1+
1?
0,
0=
1>
1<
1/
1@
0.
0`
0?
1,
1=
1A
1a
0@
1.
1`
0A
0a
#38000
0!
07
08
1$
#38500
1!
17
18
0$
1u
1;
0+
0>
0<
0/
1?
0,
0=
1@
0.
0`
1A
1a
#39000
0!
07
08
1$
#39500
1!
17
18
0$
1r
0t
0u
0s
0B
0@
1>
1<
0;
1+
0?
1,
1G
0A
0,
1=
0<
1/
1B
1@
1.
1H
0b
0.
1`
0=
0G
1A
0a
0`
0H
1b
1a
#40000
0!
07
08
1$
#40500
1!
17
18
0$
1u
1;
0+
1<
0/
1=
1`
0a
#41000
0!
07
08
1$
#41500
1!
17
18
0$
1t
0u
0>
0<
0;
1+
1,
0=
1>
1<
1/
1.
0`
0,
1=
0.
1`
#42000
0!
07
08
1$
#42500
1!
17
18
0$
1u
1;
0+
0>
0<
0/
1,
0=
1.
0`
#43000
0!
07
08
1$
#43500
1!
17
18
0$
0t
0u
1s
1>
1<
0;
1+
1?
0,
0?
1,
1=
0<
1/
0B
0@
0.
1B
1@
1.
1`
0=
1G
0A
1a
0G
1A
0a
0`
1H
0b
0H
1b
#44000
0!
07
08
1$
#44500
1!
17
18
0$
1u
1;
0+
1<
0/
1=
1`
#45000
0!
07
08
1$
#45500
1!
17
18
0$
1t
0u
0>
0<
0;
1+
1?
0,
0=
1>
1<
1/
0B
0@
0.
0`
0?
1,
1=
1G
0A
1a
1B
1@
1.
1`
1H
0b
0G
1A
0a
0H
1b
#46000
0!
07
08
1$
#46500
1!
17
18
0$
1u
0-
1;
0+
0>
0<
0/
1?
0,
0=
0B
0@
0.
0`
1G
0A
1a
1H
0b
#47000
0!
07
08
1$
#47500
1!
17
18
0$
1q
0r
0t
0u
0s
1C
0G
1B
1@
1-
1>
1<
0;
1+
0?
1,
0J
0D
0H
0C
1G
1A
0,
1=
0<
1/
0@
1.
1K
0E
1J
1D
1H
1b
0.
1`
0=
0A
0a
1L
0F
0K
1E
0c
0`
0e
0L
1d
1F
1a
1f
0b
0g
1c
1h
0d
0i
1e
0f
1g
0h
1i
#48000
0!
07
08
1$
#48500
1!
17
18
0$
1u
1;
0+
1<
0/
1=
1`
0a
1b
0c
1d
0e
1f
0g
1h
0i
#49000
0!
07
08
1$
#49500
1!
17
18
0$
1t
0u
0j
0>
0<
0;
1+
06
0#
1,
0=
1>
1<
1/
1.
0`
0,
1=
0.
1`
#50000
0!
07
08
1$
#50500
1!
17
18
0$
1u
1;
0+
0>
0<
0/
1,
0=
1.
0`
#51000
0!
07
08
1$
#51500
1!
17
18
0$
0t
0u
1s
1>
1<
0;
1+
1?
0,
0?
1,
1=
0<
1/
1@
0.
0@
1.
1`
0=
1A
1a
0A
0a
0`
#52000
0!
07
08
1$
#52500
1!
17
18
0$
1u
1;
0+
1<
0/
1=
1`
#53000
0!
07
08
1$
#53500
1!
17
18
0$
1t
0u
0>
0<
0;
1+
1?
0,
0=
1>
1<
1/
1@
0.
0`
0?
1,
1=
1A
1a
0@
1.
1`
0A
0a
#54000
0!
07
08
1$
#54500
1!
17
18
0$
1u
1;
0+
0>
0<
0/
1?
0,
0=
1@
0.
0`
1A
1a
#55000
0!
07
08
1$
#55500
1!
17
18
0$
1r
0t
0u
0s
0B
0@
1>
1<
0;
1+
0?
1,
1C
0G
0A
0,
1=
0<
1/
1B
1@
1.
0J
0D
0H
0b
0.
1`
0=
0C
1G
1A
0a
1K
0E
1c
0`
1J
1D
1H
1b
1L
0d
0F
1a
0K
1E
0c
0L
1d
1F
#56000
0!
07
08
1$
#56500
1!
17
18
0$
1u
1;
0+
1<
0/
1=
1`
0a
#57000
0!
07
08
1$
#57500
1!
17
18
0$
1t
0u
0>
0<
0;
1+
1,
0=
1>
1<
1/
1.
0`
0,
1=
0.
1`
#58000
0!
07
08
1$
#58500
1!
17
18
0$
1u
1;
0+
0>
0<
0/
1,
0=
1.
0`
#59000
0!
07
08
1$
#59500
1!
17
18
0$
0t
0u
1s
1>
1<
0;
1+
1?
0,
0?
1,
1=
0<
1/
0B
0@
0.
1B
1@
1.
1`
0=
1C
0G
0A
1a
0C
1G
1A
0a
0`
0J
0D
0H
0b
1J
1D
1H
1b
1K
0E
1c
0K
1E
0c
1L
0d
0F
0L
1d
1F
#60000
0!
07
08
1$
#60500
1!
17
18
0$
1u
1;
0+
1<
0/
1=
1`
#61000
0!
07
08
1$
#61500
1!
17
18
0$
1t
0u
0>
0<
0;
1+
1?
0,
0=
1>
1<
1/
0B
0@
0.
0`
0?
1,
1=
1C
0G
0A
1a
1B
1@
1.
1`
0J
0D
0H
0b
0C
1G
1A
0a
1K
0E
1c
1J
1D
1H
1b
1L
0d
0F
0K
1E
0c
0L
1d
1F
#62000
0!
07
08
1$
#62500
1!
17
18
0$
1u
0-
1;
0+
0>
0<
0/
1?
0,
0=
0B
0@
0.
0`
1C
0G
0A
1a
0J
0D
0H
0b
1K
0E
1c
1L
0d
0F
#63000
0!
07
08
1$
#63500
1!
17
18
0$
1o
0q
0p
0r
0t
0u
0s
1M
0K
1I
0C
1G
1J
1D
1B
1@
1-
1>
1<
0;
1+
0?
1,
1N
0L
0D
1H
0M
1K
1E
0G
1A
0,
1=
0<
1/
0@
1.
1O
1e
0E
0N
1L
1F
0H
1b
0.
1`
0=
0A
0a
0F
0O
0e
0`
1a
0b
#64000
0!
07
08
1$
#64500
1!
17
18
0$
1u
1;
0+
1<
0/
1=
1`
0a
1b
#65000
0!
07
08
1$
#65500
1!
17
18
0$
1t
0u
0>
0<
0;
1+
1,
0=
1>
1<
1/
1.
0`
0,
1=
0.
1`
#66000
0!
07
08
1$
#66500
1!
17
18
0$
1u
1;
0+
0>
0<
0/
1,
0=
1.
0`
#67000
0!
07
08
1$
#67500
1!
17
18
0$
0t
0u
1s
1>
1<
0;
1+
1?
0,
0?
1,
1=
0<
1/
1@
0.
0@
1.
1`
0=
1A
1a
0A
0a
0`
#68000
0!
07
08
1$
#68500
1!
17
18
0$
1u
1;
0+
1<
0/
1=
1`
#69000
0!
07
08
1$
#69500
1!
17
18
0$
1t
0u
0>
0<
0;
1+
1?
0,
0=
1>
1<
1/
1@
0.
0`
0?
1,
1=
1A
1a
0@
1.
1`
0A
0a
#70000
0!
07
08
1$
#70500
1!
17
18
0$
1u
1;
0+
0>
0<
0/
1?
0,
0=
1@
0.
0`
1A
1a
#71000
0!
07
08
1$
#71500
1!
17
18
0$
1r
0t
0u
0s
0B
0@
1>
1<
0;
1+
0?
1,
1G
0A
0,
1=
0<
1/
1B
1@
1.
1H
0b
0.
1`
0=
0G
1A
0a
0`
0H
1b
1a
#72000
0!
07
08
1$
#72500
1!
17
18
0$
1u
1;
0+
1<
0/
1=
1`
0a
#73000
0!
07
08
1$
#73500
1!
17
18
0$
1t
0u
0>
0<
0;
1+
1,
0=
1>
1<
1/
1.
0`
0,
1=
0.
1`
#74000
0!
07
08
1$
#74500
1!
17
18
0$
1u
1;
0+
0>
0<
0/
1,
0=
1.
0`
#75000
0!
07
08
1$
#75500
1!
17
18
0$
0t
0u
1s
1>
1<
0;
1+
1?
0,
0?
1,
1=
0<
1/
0B
0@
0.
1B
1@
1.
1`
0=
1G
0A
1a
0G
1A
0a
0`
1H
0b
0H
1b
#76000
0!
07
08
1$
#76500
1!
17
18
0$
1u
1;
0+
1<
0/
1=
1`
#77000
0!
07
08
1$
#77500
1!
17
18
0$
1t
0u
0>
0<
0;
1+
1?
0,
0=
1>
1<
1/
0B
0@
0.
0`
0?
1,
1=
1G
0A
1a
1B
1@
1.
1`
1H
0b
0G
1A
0a
0H
1b
#78000
0!
07
08
1$
#78500
1!
17
18
0$
1u
0-
1;
0+
0>
0<
0/
1?
0,
0=
0B
0@
0.
0`
1G
0A
1a
1H
0b
#79000
0!
07
08
1$
#79500
1!
17
18
0$
1q
0r
0t
0u
0s
0I
1C
0G
1B
1@
1-
1>
1<
0;
1+
0?
1,
1D
0H
0C
1G
1A
0,
1=
0<
1/
0@
1.
1E
0D
1H
1b
0.
1`
0=
0A
0a
1F
0E
0c
0`
0F
1a
0b
1c
#80000
0!
07
08
1$
#80500
1!
17
18
0$
1u
1;
0+
1<
0/
1=
1`
0a
1b
0c
#81000
0!
07
08
1$
#81500
1!
17
18
0$
1t
0u
0>
0<
0;
1+
1,
0=
1>
1<
1/
1.
0`
0,
1=
0.
1`
#82000
0!
07
08
1$
#82500
1!
17
18
0$
1u
1;
0+
0>
0<
0/
1,
0=
1.
0`
#83000
0!
07
08
1$
#83500
1!
17
18
0$
0t
0u
1s
1>
1<
0;
1+
1?
0,
0?
1,
1=
0<
1/
1@
0.
0@
1.
1`
0=
1A
1a
0A
0a
0`
#84000
0!
07
08
1$
#84500
1!
17
18
0$
1u
1;
0+
1<
0/
1=
1`
#85000
0!
07
08
1$
#85500
1!
17
18
0$
1t
0u
0>
0<
0;
1+
1?
0,
0=
1>
1<
1/
1@
0.
0`
0?
1,
1=
1A
1a
0@
1.
1`
0A
0a
#86000
0!
07
08
1$
#86500
1!
17
18
0$
1u
1;
0+
0>
0<
0/
1?
0,
0=
1@
0.
0`
1A
1a
#87000
0!
07
08
1$
#87500
1!
17
18
0$
1r
0t
0u
0s
0B
0@
1>
1<
0;
1+
0?
1,
1C
0G
0A
0,
1=
0<
1/
1B
1@
1.
1D
0H
0b
0.
1`
0=
0C
1G
1A
0a
1E
1c
0`
0D
1H
1b
1F
1a
0E
0c
0F
#88000
0!
07
08
1$
#88500
1!
17
18
0$
1u
1;
0+
1<
0/
1=
1`
0a
#89000
0!
07
08
1$
#89500
1!
17
18
0$
1t
0u
0>
0<
0;
1+
1,
0=
1>
1<
1/
1.
0`
0,
1=
0.
1`
#90000
0!
07
08
1$
#90500
1!
17
18
0$
1u
1;
0+
0>
0<
0/
1,
0=
1.
0`
#91000
0!
07
08
1$
#91500
1!
17
18
0$
0t
0u
1s
1>
1<
0;
1+
1?
0,
0?
1,
1=
0<
1/
0B
0@
0.
1B
1@
1.
1`
0=
1C
0G
0A
1a
0C
1G
1A
0a
0`
1D
0H
0b
0D
1H
1b
1E
1c
0E
0c
1F
0F
#92000
0!
07
08
1$
#92500
1!
17
18
0$
1u
1;
0+
1<
0/
1=
1`
#93000
0!
07
08
1$
#93500
1!
17
18
0$
1t
0u
0>
0<
0;
1+
1?
0,
0=
1>
1<
1/
0B
0@
0.
0`
0?
1,
1=
1C
0G
0A
1a
1B
1@
1.
1`
1D
0H
0b
0C
1G
1A
0a
1E
1c
0D
1H
1b
1F
0E
0c
0F
#94000
0!
07
08
1$
#94500
1!
17
18
0$
1u
0-
1;
0+
0>
0<
0/
1?
0,
0=
0B
0@
0.
0`
1C
0G
0A
1a
1D
0H
0b
1E
1c
1F
#95000
0!
07
08
1$
#95500
1!
17
18
0$
0q
1p
0r
0t
0u
0s
0C
1G
0J
0D
1B
1@
1-
1>
1<
0;
1+
0?
1,
1J
1D
1H
1M
0K
0E
0G
1A
0,
1=
0<
1/
0@
1.
0M
1K
1E
1N
0L
0F
0H
1b
0.
1`
0=
0A
0a
0N
1L
1F
1O
1e
0`
0O
0e
1a
0b
#96000
0!
07
08
1$
#96500
1!
17
18
0$
1u
1;
0+
1<
0/
1=
1`
0a
1b
#97000
0!
07
08
1$
#97500
1!
17
18
0$
1t
0u
0>
0<
0;
1+
1,
0=
1>
1<
1/
1.
0`
0,
1=
0.
1`
#98000
0!
07
08
1$
#98500
1!
17
18
0$
1u
1;
0+
0>
0<
0/
1,
0=
1.
0`
#99000
0!
07
08
1$
#99500
1!
17
18
0$
0t
0u
1s
1>
1<
0;
1+
1?
0,
0?
1,
1=
0<
1/
1@
0.
0@
1.
1`
0=
1A
1a
0A
0a
0`
#100000
0!
07
08
1$
#100500
1!
17
18
0$
1u
1;
0+
1<
0/
1=
1`
#101000
0!
07
08
1$
#101500
1!
17
18
0$
1t
0u
0>
0<
0;
1+
1?
0,
0=
1>
1<
1/
1@
0.
0`
0?
1,
1=
1A
1a
0@
1.
1`
0A
0a
#102000
0!
07
08
1$
#102500
1!
17
18
0$
1u
1;
0+
0>
0<
0/
1?
0,
0=
1@
0.
0`
1A
1a
#103000
0!
07
08
1$
#103500
1!
17
18
0$
1r
0t
0u
0s
0B
0@
1>
1<
0;
1+
0?
1,
1G
0A
0,
1=
0<
1/
1B
1@
1.
1H
0b
0.
1`
0=
0G
1A
0a
0`
0H
1b
1a
#104000
0!
07
08
1$
#104500
1!
17
18
0$
1u
1;
0+
1<
0/
1=
1`
0a
#105000
0!
07
08
1$
#105500
1!
17
18
0$
1t
0u
0>
0<
0;
1+
1,
0=
1>
1<
1/
1.
0`
0,
1=
0.
1`
#106000
0!
07
08
1$
#106500
1!
17
18
0$
1u
1;
0+
0>
0<
0/
1,
0=
1.
0`
#107000
0!
07
08
1$
#107500
1!
17
18
0$
0t
0u
1s
1>
1<
0;
1+
1?
0,
0?
1,
1=
0<
1/
0B
0@
0.
1B
1@
1.
1`
0=
1G
0A
1a
0G
1A
0a
0`
1H
0b
0H
1b
#108000
0!
07
08
1$
#108500
1!
17
18
0$
1u
1;
0+
1<
0/
1=
1`
#109000
0!
07
08
1$
#109500
1!
17
18
0$
1t
0u
0>
0<
0;
1+
1?
0,
0=
1>
1<
1/
0B
0@
0.
0`
0?
1,
1=
1G
0A
1a
1B
1@
1.
1`
1H
0b
0G
1A
0a
0H
1b
#110000
0!
07
08
1$
#110500
1!
17
18
0$
1u
0-
1;
0+
0>
0<
0/
1?
0,
0=
0B
0@
0.
0`
1G
0A
1a
1H
0b
#111000
0!
07
08
1$
#111500
1!
17
18
0$
1q
0r
0t
0u
0s
1C
0G
1B
1@
1-
1>
1<
0;
1+
0?
1,
0J
0D
0H
0C
1G
1A
0,
1=
0<
1/
0@
1.
1M
0K
0E
1J
1D
1H
1b
0.
1`
0=
0A
0a
1N
0L
0F
0M
1K
1E
0c
0`
1O
1e
0N
1L
1d
1F
1a
0O
0e
0b
1c
0d
#112000
0!
07
08
1$
#112500
1!
17
18
0$
1u
1;
0+
1<
0/
1=
1`
0a
1b
0c
1d
#113000
0!
07
08
1$
#113500
1!
17
18
0$
1t
0u
0>
0<
0;
1+
1,
0=
1>
1<
1/
1.
0`
0,
1=
0.
1`
#114000
0!
07
08
1$
#114500
1!
17
18
0$
1u
1;
0+
0>
0<
0/
1,
0=
1.
0`
#115000
0!
07
08
1$
#115500
1!
17
18
0$
0t
0u
1s
1>
1<
0;
1+
1?
0,
0?
1,
1=
0<
1/
1@
0.
0@
1.
1`
0=
1A
1a
0A
0a
0`
#116000
0!
07
08
1$
#116500
1!
17
18
0$
1u
1;
0+
1<
0/
1=
1`
#117000
0!
07
08
1$
#117500
1!
17
18
0$
1t
0u
0>
0<
0;
1+
1?
0,
0=
1>
1<
1/
1@
0.
0`
0?
1,
1=
1A
1a
0@
1.
1`
0A
0a
#118000
0!
07
08
1$
#118500
1!
17
18
0$
1u
1;
0+
0>
0<
0/
1?
0,
0=
1@
0.
0`
1A
1a
#119000
0!
07
08
1$
#119500
1!
17
18
0$
1r
0t
0u
0s
0B
0@
1>
1<
0;
1+
0?
1,
1C
0G
0A
0,
1=
0<
1/
1B
1@
1.
0J
0D
0H
0b
0.
1`
0=
0C
1G
1A
0a
1M
0K
0E
1c
0`
1J
1D
1H
1b
1N
0L
0d
0F
1a
0M
1K
1E
0c
1O
1e
0N
1L
1d
1F
0O
0e
#120000
0!
07
08
1$
#120500
1!
17
18
0$
1u
1;
0+
1<
0/
1=
1`
0a
#121000
0!
07
08
1$
#121500
1!
17
18
0$
1t
0u
0>
0<
0;
1+
1,
0=
1>
1<
1/
1.
0`
0,
1=
0.
1`
#122000
0!
07
08
1$
#122500
1!
17
18
0$
1u
1;
0+
0>
0<
0/
1,
0=
1.
0`
#123000
0!
07
08
1$
#123500
1!
17
18
0$
0t
0u
1s
1>
1<
0;
1+
1?
0,
0?
1,
1=
0<
1/
0B
0@
0.
1B
1@
1.
1`
0=
1C
0G
0A
1a
0C
1G
1A
0a
0`
0J
0D
0H
0b
1J
1D
1H
1b
1M
0K
0E
1c
0M
1K
1E
0c
1N
0L
0d
0F
0N
1L
1d
1F
1O
1e
0O
0e
#124000
0!
07
08
1$
#124500
1!
17
18
0$
1u
1;
0+
1<
0/
1=
1`
#125000
0!
07
08
1$
#125500
1!
17
18
0$
1t
0u
0>
0<
0;
1+
1?
0,
0=
1>
1<
1/
0B
0@
0.
0`
0?
1,
1=
1C
0G
0A
1a
1B
1@
1.
1`
0J
0D
0H
0b
0C
1G
1A
0a
1M
0K
0E
1c
1J
1D
1H
1b
1N
0L
0d
0F
0M
1K
1E
0c
1O
1e
0N
1L
1d
1F
0O
0e
#126000
0!
07
08
1$
#126500
1!
17
18
0$
1u
0-
1;
0+
0>
0<
0/
1?
0,
0=
0B
0@
0.
0`
1C
0G
0A
1a
0J
0D
0H
0b
1M
0K
0E
1c
1N
0L
0d
0F
1O
1e
#127000
0!
07
08
1$
#127500
1!
17
18
0$
1n
0o
0q
0p
0r
0t
0u
0s
0R
0N
0M
1K
1I
0C
1G
1J
1D
1B
1@
1-
1>
1<
0;
1+
0?
1,
1S
0O
1R
1N
1L
0D
1H
0K
1E
0G
1A
0,
1=
0<
1/
0@
1.
1T
0f
0S
1O
0e
0E
0L
1F
0H
1b
0.
1`
0=
0A
0a
0T
1f
0F
1e
0`
1a
0b
#128000
0!
07
08
1$
#128500
1!
17
18
0$
1u
1;
0+
1<
0/
1=
1`
0a
1b
#129000
0!
07
08
1$
#129500
1!
17
18
0$
1t
0u
0>
0<
0;
1+
1,
0=
1>
1<
1/
1.
0`
0,
1=
0.
1`
#130000
0!
07
08
1$
#130500
1!
17
18
0$
1u
1;
0+
0>
0<
0/
1,
0=
1.
0`
#131000
0!
07
08
1$
#131500
1!
17
18
0$
0t
0u
1s
1>
1<
0;
1+
1?
0,
0?
1,
1=
0<
1/
1@
0.
0@
1.
1`
0=
1A
1a
0A
0a
0`
#132000
0!
07
08
1$
#132500
1!
17
18
0$
1u
1;
0+
1<
0/
1=
1`
#133000
0!
07
08
1$
#133500
1!
17
18
0$
1t
0u
0>
0<
0;
1+
1?
0,
0=
1>
1<
1/
1@
0.
0`
0?
1,
1=
1A
1a
0@
1.
1`
0A
0a
#134000
0!
07
08
1$
#134500
1!
17
18
0$
1u
1;
0+
0>
0<
0/
1?
0,
0=
1@
0.
0`
1A
1a
#135000
0!
07
08
1$
#135500
1!
17
18
0$
1r
0t
0u
0s
0B
0@
1>
1<
0;
1+
0?
1,
1G
0A
0,
1=
0<
1/
1B
1@
1.
1H
0b
0.
1`
0=
0G
1A
0a
0`
0H
1b
1a
#136000
0!
07
08
1$
#136500
1!
17
18
0$
1u
1;
0+
1<
0/
1=
1`
0a
#137000
0!
07
08
1$
#137500
1!
17
18
0$
1t
0u
0>
0<
0;
1+
1,
0=
1>
1<
1/
1.
0`
0,
1=
0.
1`
#138000
0!
07
08
1$
#138500
1!
17
18
0$
1u
1;
0+
0>
0<
0/
1,
0=
1.
0`
#139000
0!
07
08
1$
